2018-08-28 11:20:12: 
<div style="border:1px solid #990000;padding-left:20px;margin:0 0 10px 0;">

<h4>A PHP Error was encountered</h4>

<p>Severity: Warning</p>
<p>Message:  file_put_contents(/opt/lampp/htdocs/sirstql/application/cache/frame_1.dat): failed to open stream: Permission denied</p>
<p>Filename: qrcode/qrspec.php</p>
<p>Line Number: 568</p>


	<p>Backtrace:</p>
	
		
	
		
	
		
	
		
			<p style="margin-left:10px">
			File: /opt/lampp/htdocs/sirstql/application/libraries/qrcode/qrspec.php<br />
			Line: 568<br />
			Function: file_put_contents			</p>

		
	
		
			<p style="margin-left:10px">
			File: /opt/lampp/htdocs/sirstql/application/libraries/qrcode/qrencode.php<br />
			Line: 178<br />
			Function: newFrame			</p>

		
	
		
			<p style="margin-left:10px">
			File: /opt/lampp/htdocs/sirstql/application/libraries/qrcode/qrencode.php<br />
			Line: 240<br />
			Function: encodeMask			</p>

		
	
		
			<p style="margin-left:10px">
			File: /opt/lampp/htdocs/sirstql/application/libraries/qrcode/qrencode.php<br />
			Line: 279<br />
			Function: encodeInput			</p>

		
	
		
			<p style="margin-left:10px">
			File: /opt/lampp/htdocs/sirstql/application/libraries/qrcode/qrencode.php<br />
			Line: 467<br />
			Function: encodeString			</p>

		
	
		
			<p style="margin-left:10px">
			File: /opt/lampp/htdocs/sirstql/application/libraries/qrcode/qrencode.php<br />
			Line: 485<br />
			Function: encode			</p>

		
	
		
			<p style="margin-left:10px">
			File: /opt/lampp/htdocs/sirstql/application/libraries/qrcode/qrencode.php<br />
			Line: 286<br />
			Function: encodePNG			</p>

		
	
		
			<p style="margin-left:10px">
			File: /opt/lampp/htdocs/sirstql/application/libraries/Ciqrcode.php<br />
			Line: 92<br />
			Function: png			</p>

		
	
		
			<p style="margin-left:10px">
			File: /opt/lampp/htdocs/sirstql/application/controllers/Cdashboard.php<br />
			Line: 82<br />
			Function: generate			</p>

		
	
		
	
		
	
		
			<p style="margin-left:10px">
			File: /opt/lampp/htdocs/sirstql/index.php<br />
			Line: 318<br />
			Function: require_once			</p>

		
	

</div>
<div style="border:1px solid #990000;padding-left:20px;margin:0 0 10px 0;">

<h4>A PHP Error was encountered</h4>

<p>Severity: Warning</p>
<p>Message:  mkdir(): Permission denied</p>
<p>Filename: qrcode/qrmask.php</p>
<p>Line Number: 154</p>


	<p>Backtrace:</p>
	
		
	
		
	
		
	
		
			<p style="margin-left:10px">
			File: /opt/lampp/htdocs/sirstql/application/libraries/qrcode/qrmask.php<br />
			Line: 154<br />
			Function: mkdir			</p>

		
	
		
			<p style="margin-left:10px">
			File: /opt/lampp/htdocs/sirstql/application/libraries/qrcode/qrmask.php<br />
			Line: 311<br />
			Function: makeMaskNo			</p>

		
	
		
			<p style="margin-left:10px">
			File: /opt/lampp/htdocs/sirstql/application/libraries/qrcode/qrencode.php<br />
			Line: 216<br />
			Function: mask			</p>

		
	
		
			<p style="margin-left:10px">
			File: /opt/lampp/htdocs/sirstql/application/libraries/qrcode/qrencode.php<br />
			Line: 240<br />
			Function: encodeMask			</p>

		
	
		
			<p style="margin-left:10px">
			File: /opt/lampp/htdocs/sirstql/application/libraries/qrcode/qrencode.php<br />
			Line: 279<br />
			Function: encodeInput			</p>

		
	
		
			<p style="margin-left:10px">
			File: /opt/lampp/htdocs/sirstql/application/libraries/qrcode/qrencode.php<br />
			Line: 467<br />
			Function: encodeString			</p>

		
	
		
			<p style="margin-left:10px">
			File: /opt/lampp/htdocs/sirstql/application/libraries/qrcode/qrencode.php<br />
			Line: 485<br />
			Function: encode			</p>

		
	
		
			<p style="margin-left:10px">
			File: /opt/lampp/htdocs/sirstql/application/libraries/qrcode/qrencode.php<br />
			Line: 286<br />
			Function: encodePNG			</p>

		
	
		
			<p style="margin-left:10px">
			File: /opt/lampp/htdocs/sirstql/application/libraries/Ciqrcode.php<br />
			Line: 92<br />
			Function: png			</p>

		
	
		
			<p style="margin-left:10px">
			File: /opt/lampp/htdocs/sirstql/application/controllers/Cdashboard.php<br />
			Line: 82<br />
			Function: generate			</p>

		
	
		
	
		
	
		
			<p style="margin-left:10px">
			File: /opt/lampp/htdocs/sirstql/index.php<br />
			Line: 318<br />
			Function: require_once			</p>

		
	

</div>
<div style="border:1px solid #990000;padding-left:20px;margin:0 0 10px 0;">

<h4>A PHP Error was encountered</h4>

<p>Severity: Warning</p>
<p>Message:  file_put_contents(/opt/lampp/htdocs/sirstql/application/cache/mask_0/mask_21_0.dat): failed to open stream: No such file or directory</p>
<p>Filename: qrcode/qrmask.php</p>
<p>Line Number: 155</p>


	<p>Backtrace:</p>
	
		
	
		
	
		
	
		
			<p style="margin-left:10px">
			File: /opt/lampp/htdocs/sirstql/application/libraries/qrcode/qrmask.php<br />
			Line: 155<br />
			Function: file_put_contents			</p>

		
	
		
			<p style="margin-left:10px">
			File: /opt/lampp/htdocs/sirstql/application/libraries/qrcode/qrmask.php<br />
			Line: 311<br />
			Function: makeMaskNo			</p>

		
	
		
			<p style="margin-left:10px">
			File: /opt/lampp/htdocs/sirstql/application/libraries/qrcode/qrencode.php<br />
			Line: 216<br />
			Function: mask			</p>

		
	
		
			<p style="margin-left:10px">
			File: /opt/lampp/htdocs/sirstql/application/libraries/qrcode/qrencode.php<br />
			Line: 240<br />
			Function: encodeMask			</p>

		
	
		
			<p style="margin-left:10px">
			File: /opt/lampp/htdocs/sirstql/application/libraries/qrcode/qrencode.php<br />
			Line: 279<br />
			Function: encodeInput			</p>

		
	
		
			<p style="margin-left:10px">
			File: /opt/lampp/htdocs/sirstql/application/libraries/qrcode/qrencode.php<br />
			Line: 467<br />
			Function: encodeString			</p>

		
	
		
			<p style="margin-left:10px">
			File: /opt/lampp/htdocs/sirstql/application/libraries/qrcode/qrencode.php<br />
			Line: 485<br />
			Function: encode			</p>

		
	
		
			<p style="margin-left:10px">
			File: /opt/lampp/htdocs/sirstql/application/libraries/qrcode/qrencode.php<br />
			Line: 286<br />
			Function: encodePNG			</p>

		
	
		
			<p style="margin-left:10px">
			File: /opt/lampp/htdocs/sirstql/application/libraries/Ciqrcode.php<br />
			Line: 92<br />
			Function: png			</p>

		
	
		
			<p style="margin-left:10px">
			File: /opt/lampp/htdocs/sirstql/application/controllers/Cdashboard.php<br />
			Line: 82<br />
			Function: generate			</p>

		
	
		
	
		
	
		
			<p style="margin-left:10px">
			File: /opt/lampp/htdocs/sirstql/index.php<br />
			Line: 318<br />
			Function: require_once			</p>

		
	

</div>
<div style="border:1px solid #990000;padding-left:20px;margin:0 0 10px 0;">

<h4>A PHP Error was encountered</h4>

<p>Severity: Warning</p>
<p>Message:  mkdir(): Permission denied</p>
<p>Filename: qrcode/qrmask.php</p>
<p>Line Number: 154</p>


	<p>Backtrace:</p>
	
		
	
		
	
		
	
		
			<p style="margin-left:10px">
			File: /opt/lampp/htdocs/sirstql/application/libraries/qrcode/qrmask.php<br />
			Line: 154<br />
			Function: mkdir			</p>

		
	
		
			<p style="margin-left:10px">
			File: /opt/lampp/htdocs/sirstql/application/libraries/qrcode/qrmask.php<br />
			Line: 311<br />
			Function: makeMaskNo			</p>

		
	
		
			<p style="margin-left:10px">
			File: /opt/lampp/htdocs/sirstql/application/libraries/qrcode/qrencode.php<br />
			Line: 216<br />
			Function: mask			</p>

		
	
		
			<p style="margin-left:10px">
			File: /opt/lampp/htdocs/sirstql/application/libraries/qrcode/qrencode.php<br />
			Line: 240<br />
			Function: encodeMask			</p>

		
	
		
			<p style="margin-left:10px">
			File: /opt/lampp/htdocs/sirstql/application/libraries/qrcode/qrencode.php<br />
			Line: 279<br />
			Function: encodeInput			</p>

		
	
		
			<p style="margin-left:10px">
			File: /opt/lampp/htdocs/sirstql/application/libraries/qrcode/qrencode.php<br />
			Line: 467<br />
			Function: encodeString			</p>

		
	
		
			<p style="margin-left:10px">
			File: /opt/lampp/htdocs/sirstql/application/libraries/qrcode/qrencode.php<br />
			Line: 485<br />
			Function: encode			</p>

		
	
		
			<p style="margin-left:10px">
			File: /opt/lampp/htdocs/sirstql/application/libraries/qrcode/qrencode.php<br />
			Line: 286<br />
			Function: encodePNG			</p>

		
	
		
			<p style="margin-left:10px">
			File: /opt/lampp/htdocs/sirstql/application/libraries/Ciqrcode.php<br />
			Line: 92<br />
			Function: png			</p>

		
	
		
			<p style="margin-left:10px">
			File: /opt/lampp/htdocs/sirstql/application/controllers/Cdashboard.php<br />
			Line: 82<br />
			Function: generate			</p>

		
	
		
	
		
	
		
			<p style="margin-left:10px">
			File: /opt/lampp/htdocs/sirstql/index.php<br />
			Line: 318<br />
			Function: require_once			</p>

		
	

</div>
<div style="border:1px solid #990000;padding-left:20px;margin:0 0 10px 0;">

<h4>A PHP Error was encountered</h4>

<p>Severity: Warning</p>
<p>Message:  file_put_contents(/opt/lampp/htdocs/sirstql/application/cache/mask_1/mask_21_1.dat): failed to open stream: No such file or directory</p>
<p>Filename: qrcode/qrmask.php</p>
<p>Line Number: 155</p>


	<p>Backtrace:</p>
	
		
	
		
	
		
	
		
			<p style="margin-left:10px">
			File: /opt/lampp/htdocs/sirstql/application/libraries/qrcode/qrmask.php<br />
			Line: 155<br />
			Function: file_put_contents			</p>

		
	
		
			<p style="margin-left:10px">
			File: /opt/lampp/htdocs/sirstql/application/libraries/qrcode/qrmask.php<br />
			Line: 311<br />
			Function: makeMaskNo			</p>

		
	
		
			<p style="margin-left:10px">
			File: /opt/lampp/htdocs/sirstql/application/libraries/qrcode/qrencode.php<br />
			Line: 216<br />
			Function: mask			</p>

		
	
		
			<p style="margin-left:10px">
			File: /opt/lampp/htdocs/sirstql/application/libraries/qrcode/qrencode.php<br />
			Line: 240<br />
			Function: encodeMask			</p>

		
	
		
			<p style="margin-left:10px">
			File: /opt/lampp/htdocs/sirstql/application/libraries/qrcode/qrencode.php<br />
			Line: 279<br />
			Function: encodeInput			</p>

		
	
		
			<p style="margin-left:10px">
			File: /opt/lampp/htdocs/sirstql/application/libraries/qrcode/qrencode.php<br />
			Line: 467<br />
			Function: encodeString			</p>

		
	
		
			<p style="margin-left:10px">
			File: /opt/lampp/htdocs/sirstql/application/libraries/qrcode/qrencode.php<br />
			Line: 485<br />
			Function: encode			</p>

		
	
		
			<p style="margin-left:10px">
			File: /opt/lampp/htdocs/sirstql/application/libraries/qrcode/qrencode.php<br />
			Line: 286<br />
			Function: encodePNG			</p>

		
	
		
			<p style="margin-left:10px">
			File: /opt/lampp/htdocs/sirstql/application/libraries/Ciqrcode.php<br />
			Line: 92<br />
			Function: png			</p>

		
	
		
			<p style="margin-left:10px">
			File: /opt/lampp/htdocs/sirstql/application/controllers/Cdashboard.php<br />
			Line: 82<br />
			Function: generate			</p>

		
	
		
	
		
	
		
			<p style="margin-left:10px">
			File: /opt/lampp/htdocs/sirstql/index.php<br />
			Line: 318<br />
			Function: require_once			</p>

		
	

</div>
<div style="border:1px solid #990000;padding-left:20px;margin:0 0 10px 0;">

<h4>A PHP Error was encountered</h4>

<p>Severity: Warning</p>
<p>Message:  mkdir(): Permission denied</p>
<p>Filename: qrcode/qrmask.php</p>
<p>Line Number: 154</p>


	<p>Backtrace:</p>
	
		
	
		
	
		
	
		
			<p style="margin-left:10px">
			File: /opt/lampp/htdocs/sirstql/application/libraries/qrcode/qrmask.php<br />
			Line: 154<br />
			Function: mkdir			</p>

		
	
		
			<p style="margin-left:10px">
			File: /opt/lampp/htdocs/sirstql/application/libraries/qrcode/qrmask.php<br />
			Line: 311<br />
			Function: makeMaskNo			</p>

		
	
		
			<p style="margin-left:10px">
			File: /opt/lampp/htdocs/sirstql/application/libraries/qrcode/qrencode.php<br />
			Line: 216<br />
			Function: mask			</p>

		
	
		
			<p style="margin-left:10px">
			File: /opt/lampp/htdocs/sirstql/application/libraries/qrcode/qrencode.php<br />
			Line: 240<br />
			Function: encodeMask			</p>

		
	
		
			<p style="margin-left:10px">
			File: /opt/lampp/htdocs/sirstql/application/libraries/qrcode/qrencode.php<br />
			Line: 279<br />
			Function: encodeInput			</p>

		
	
		
			<p style="margin-left:10px">
			File: /opt/lampp/htdocs/sirstql/application/libraries/qrcode/qrencode.php<br />
			Line: 467<br />
			Function: encodeString			</p>

		
	
		
			<p style="margin-left:10px">
			File: /opt/lampp/htdocs/sirstql/application/libraries/qrcode/qrencode.php<br />
			Line: 485<br />
			Function: encode			</p>

		
	
		
			<p style="margin-left:10px">
			File: /opt/lampp/htdocs/sirstql/application/libraries/qrcode/qrencode.php<br />
			Line: 286<br />
			Function: encodePNG			</p>

		
	
		
			<p style="margin-left:10px">
			File: /opt/lampp/htdocs/sirstql/application/libraries/Ciqrcode.php<br />
			Line: 92<br />
			Function: png			</p>

		
	
		
			<p style="margin-left:10px">
			File: /opt/lampp/htdocs/sirstql/application/controllers/Cdashboard.php<br />
			Line: 82<br />
			Function: generate			</p>

		
	
		
	
		
	
		
			<p style="margin-left:10px">
			File: /opt/lampp/htdocs/sirstql/index.php<br />
			Line: 318<br />
			Function: require_once			</p>

		
	

</div>
<div style="border:1px solid #990000;padding-left:20px;margin:0 0 10px 0;">

<h4>A PHP Error was encountered</h4>

<p>Severity: Warning</p>
<p>Message:  file_put_contents(/opt/lampp/htdocs/sirstql/application/cache/mask_2/mask_21_2.dat): failed to open stream: No such file or directory</p>
<p>Filename: qrcode/qrmask.php</p>
<p>Line Number: 155</p>


	<p>Backtrace:</p>
	
		
	
		
	
		
	
		
			<p style="margin-left:10px">
			File: /opt/lampp/htdocs/sirstql/application/libraries/qrcode/qrmask.php<br />
			Line: 155<br />
			Function: file_put_contents			</p>

		
	
		
			<p style="margin-left:10px">
			File: /opt/lampp/htdocs/sirstql/application/libraries/qrcode/qrmask.php<br />
			Line: 311<br />
			Function: makeMaskNo			</p>

		
	
		
			<p style="margin-left:10px">
			File: /opt/lampp/htdocs/sirstql/application/libraries/qrcode/qrencode.php<br />
			Line: 216<br />
			Function: mask			</p>

		
	
		
			<p style="margin-left:10px">
			File: /opt/lampp/htdocs/sirstql/application/libraries/qrcode/qrencode.php<br />
			Line: 240<br />
			Function: encodeMask			</p>

		
	
		
			<p style="margin-left:10px">
			File: /opt/lampp/htdocs/sirstql/application/libraries/qrcode/qrencode.php<br />
			Line: 279<br />
			Function: encodeInput			</p>

		
	
		
			<p style="margin-left:10px">
			File: /opt/lampp/htdocs/sirstql/application/libraries/qrcode/qrencode.php<br />
			Line: 467<br />
			Function: encodeString			</p>

		
	
		
			<p style="margin-left:10px">
			File: /opt/lampp/htdocs/sirstql/application/libraries/qrcode/qrencode.php<br />
			Line: 485<br />
			Function: encode			</p>

		
	
		
			<p style="margin-left:10px">
			File: /opt/lampp/htdocs/sirstql/application/libraries/qrcode/qrencode.php<br />
			Line: 286<br />
			Function: encodePNG			</p>

		
	
		
			<p style="margin-left:10px">
			File: /opt/lampp/htdocs/sirstql/application/libraries/Ciqrcode.php<br />
			Line: 92<br />
			Function: png			</p>

		
	
		
			<p style="margin-left:10px">
			File: /opt/lampp/htdocs/sirstql/application/controllers/Cdashboard.php<br />
			Line: 82<br />
			Function: generate			</p>

		
	
		
	
		
	
		
			<p style="margin-left:10px">
			File: /opt/lampp/htdocs/sirstql/index.php<br />
			Line: 318<br />
			Function: require_once			</p>

		
	

</div>
<div style="border:1px solid #990000;padding-left:20px;margin:0 0 10px 0;">

<h4>A PHP Error was encountered</h4>

<p>Severity: Warning</p>
<p>Message:  mkdir(): Permission denied</p>
<p>Filename: qrcode/qrmask.php</p>
<p>Line Number: 154</p>


	<p>Backtrace:</p>
	
		
	
		
	
		
	
		
			<p style="margin-left:10px">
			File: /opt/lampp/htdocs/sirstql/application/libraries/qrcode/qrmask.php<br />
			Line: 154<br />
			Function: mkdir			</p>

		
	
		
			<p style="margin-left:10px">
			File: /opt/lampp/htdocs/sirstql/application/libraries/qrcode/qrmask.php<br />
			Line: 311<br />
			Function: makeMaskNo			</p>

		
	
		
			<p style="margin-left:10px">
			File: /opt/lampp/htdocs/sirstql/application/libraries/qrcode/qrencode.php<br />
			Line: 216<br />
			Function: mask			</p>

		
	
		
			<p style="margin-left:10px">
			File: /opt/lampp/htdocs/sirstql/application/libraries/qrcode/qrencode.php<br />
			Line: 240<br />
			Function: encodeMask			</p>

		
	
		
			<p style="margin-left:10px">
			File: /opt/lampp/htdocs/sirstql/application/libraries/qrcode/qrencode.php<br />
			Line: 279<br />
			Function: encodeInput			</p>

		
	
		
			<p style="margin-left:10px">
			File: /opt/lampp/htdocs/sirstql/application/libraries/qrcode/qrencode.php<br />
			Line: 467<br />
			Function: encodeString			</p>

		
	
		
			<p style="margin-left:10px">
			File: /opt/lampp/htdocs/sirstql/application/libraries/qrcode/qrencode.php<br />
			Line: 485<br />
			Function: encode			</p>

		
	
		
			<p style="margin-left:10px">
			File: /opt/lampp/htdocs/sirstql/application/libraries/qrcode/qrencode.php<br />
			Line: 286<br />
			Function: encodePNG			</p>

		
	
		
			<p style="margin-left:10px">
			File: /opt/lampp/htdocs/sirstql/application/libraries/Ciqrcode.php<br />
			Line: 92<br />
			Function: png			</p>

		
	
		
			<p style="margin-left:10px">
			File: /opt/lampp/htdocs/sirstql/application/controllers/Cdashboard.php<br />
			Line: 82<br />
			Function: generate			</p>

		
	
		
	
		
	
		
			<p style="margin-left:10px">
			File: /opt/lampp/htdocs/sirstql/index.php<br />
			Line: 318<br />
			Function: require_once			</p>

		
	

</div>
<div style="border:1px solid #990000;padding-left:20px;margin:0 0 10px 0;">

<h4>A PHP Error was encountered</h4>

<p>Severity: Warning</p>
<p>Message:  file_put_contents(/opt/lampp/htdocs/sirstql/application/cache/mask_3/mask_21_3.dat): failed to open stream: No such file or directory</p>
<p>Filename: qrcode/qrmask.php</p>
<p>Line Number: 155</p>


	<p>Backtrace:</p>
	
		
	
		
	
		
	
		
			<p style="margin-left:10px">
			File: /opt/lampp/htdocs/sirstql/application/libraries/qrcode/qrmask.php<br />
			Line: 155<br />
			Function: file_put_contents			</p>

		
	
		
			<p style="margin-left:10px">
			File: /opt/lampp/htdocs/sirstql/application/libraries/qrcode/qrmask.php<br />
			Line: 311<br />
			Function: makeMaskNo			</p>

		
	
		
			<p style="margin-left:10px">
			File: /opt/lampp/htdocs/sirstql/application/libraries/qrcode/qrencode.php<br />
			Line: 216<br />
			Function: mask			</p>

		
	
		
			<p style="margin-left:10px">
			File: /opt/lampp/htdocs/sirstql/application/libraries/qrcode/qrencode.php<br />
			Line: 240<br />
			Function: encodeMask			</p>

		
	
		
			<p style="margin-left:10px">
			File: /opt/lampp/htdocs/sirstql/application/libraries/qrcode/qrencode.php<br />
			Line: 279<br />
			Function: encodeInput			</p>

		
	
		
			<p style="margin-left:10px">
			File: /opt/lampp/htdocs/sirstql/application/libraries/qrcode/qrencode.php<br />
			Line: 467<br />
			Function: encodeString			</p>

		
	
		
			<p style="margin-left:10px">
			File: /opt/lampp/htdocs/sirstql/application/libraries/qrcode/qrencode.php<br />
			Line: 485<br />
			Function: encode			</p>

		
	
		
			<p style="margin-left:10px">
			File: /opt/lampp/htdocs/sirstql/application/libraries/qrcode/qrencode.php<br />
			Line: 286<br />
			Function: encodePNG			</p>

		
	
		
			<p style="margin-left:10px">
			File: /opt/lampp/htdocs/sirstql/application/libraries/Ciqrcode.php<br />
			Line: 92<br />
			Function: png			</p>

		
	
		
			<p style="margin-left:10px">
			File: /opt/lampp/htdocs/sirstql/application/controllers/Cdashboard.php<br />
			Line: 82<br />
			Function: generate			</p>

		
	
		
	
		
	
		
			<p style="margin-left:10px">
			File: /opt/lampp/htdocs/sirstql/index.php<br />
			Line: 318<br />
			Function: require_once			</p>

		
	

</div>
<div style="border:1px solid #990000;padding-left:20px;margin:0 0 10px 0;">

<h4>A PHP Error was encountered</h4>

<p>Severity: Warning</p>
<p>Message:  mkdir(): Permission denied</p>
<p>Filename: qrcode/qrmask.php</p>
<p>Line Number: 154</p>


	<p>Backtrace:</p>
	
		
	
		
	
		
	
		
			<p style="margin-left:10px">
			File: /opt/lampp/htdocs/sirstql/application/libraries/qrcode/qrmask.php<br />
			Line: 154<br />
			Function: mkdir			</p>

		
	
		
			<p style="margin-left:10px">
			File: /opt/lampp/htdocs/sirstql/application/libraries/qrcode/qrmask.php<br />
			Line: 311<br />
			Function: makeMaskNo			</p>

		
	
		
			<p style="margin-left:10px">
			File: /opt/lampp/htdocs/sirstql/application/libraries/qrcode/qrencode.php<br />
			Line: 216<br />
			Function: mask			</p>

		
	
		
			<p style="margin-left:10px">
			File: /opt/lampp/htdocs/sirstql/application/libraries/qrcode/qrencode.php<br />
			Line: 240<br />
			Function: encodeMask			</p>

		
	
		
			<p style="margin-left:10px">
			File: /opt/lampp/htdocs/sirstql/application/libraries/qrcode/qrencode.php<br />
			Line: 279<br />
			Function: encodeInput			</p>

		
	
		
			<p style="margin-left:10px">
			File: /opt/lampp/htdocs/sirstql/application/libraries/qrcode/qrencode.php<br />
			Line: 467<br />
			Function: encodeString			</p>

		
	
		
			<p style="margin-left:10px">
			File: /opt/lampp/htdocs/sirstql/application/libraries/qrcode/qrencode.php<br />
			Line: 485<br />
			Function: encode			</p>

		
	
		
			<p style="margin-left:10px">
			File: /opt/lampp/htdocs/sirstql/application/libraries/qrcode/qrencode.php<br />
			Line: 286<br />
			Function: encodePNG			</p>

		
	
		
			<p style="margin-left:10px">
			File: /opt/lampp/htdocs/sirstql/application/libraries/Ciqrcode.php<br />
			Line: 92<br />
			Function: png			</p>

		
	
		
			<p style="margin-left:10px">
			File: /opt/lampp/htdocs/sirstql/application/controllers/Cdashboard.php<br />
			Line: 82<br />
			Function: generate			</p>

		
	
		
	
		
	
		
			<p style="margin-left:10px">
			File: /opt/lampp/htdocs/sirstql/index.php<br />
			Line: 318<br />
			Function: require_once			</p>

		
	

</div>
<div style="border:1px solid #990000;padding-left:20px;margin:0 0 10px 0;">

<h4>A PHP Error was encountered</h4>

<p>Severity: Warning</p>
<p>Message:  file_put_contents(/opt/lampp/htdocs/sirstql/application/cache/mask_4/mask_21_4.dat): failed to open stream: No such file or directory</p>
<p>Filename: qrcode/qrmask.php</p>
<p>Line Number: 155</p>


	<p>Backtrace:</p>
	
		
	
		
	
		
	
		
			<p style="margin-left:10px">
			File: /opt/lampp/htdocs/sirstql/application/libraries/qrcode/qrmask.php<br />
			Line: 155<br />
			Function: file_put_contents			</p>

		
	
		
			<p style="margin-left:10px">
			File: /opt/lampp/htdocs/sirstql/application/libraries/qrcode/qrmask.php<br />
			Line: 311<br />
			Function: makeMaskNo			</p>

		
	
		
			<p style="margin-left:10px">
			File: /opt/lampp/htdocs/sirstql/application/libraries/qrcode/qrencode.php<br />
			Line: 216<br />
			Function: mask			</p>

		
	
		
			<p style="margin-left:10px">
			File: /opt/lampp/htdocs/sirstql/application/libraries/qrcode/qrencode.php<br />
			Line: 240<br />
			Function: encodeMask			</p>

		
	
		
			<p style="margin-left:10px">
			File: /opt/lampp/htdocs/sirstql/application/libraries/qrcode/qrencode.php<br />
			Line: 279<br />
			Function: encodeInput			</p>

		
	
		
			<p style="margin-left:10px">
			File: /opt/lampp/htdocs/sirstql/application/libraries/qrcode/qrencode.php<br />
			Line: 467<br />
			Function: encodeString			</p>

		
	
		
			<p style="margin-left:10px">
			File: /opt/lampp/htdocs/sirstql/application/libraries/qrcode/qrencode.php<br />
			Line: 485<br />
			Function: encode			</p>

		
	
		
			<p style="margin-left:10px">
			File: /opt/lampp/htdocs/sirstql/application/libraries/qrcode/qrencode.php<br />
			Line: 286<br />
			Function: encodePNG			</p>

		
	
		
			<p style="margin-left:10px">
			File: /opt/lampp/htdocs/sirstql/application/libraries/Ciqrcode.php<br />
			Line: 92<br />
			Function: png			</p>

		
	
		
			<p style="margin-left:10px">
			File: /opt/lampp/htdocs/sirstql/application/controllers/Cdashboard.php<br />
			Line: 82<br />
			Function: generate			</p>

		
	
		
	
		
	
		
			<p style="margin-left:10px">
			File: /opt/lampp/htdocs/sirstql/index.php<br />
			Line: 318<br />
			Function: require_once			</p>

		
	

</div>
<div style="border:1px solid #990000;padding-left:20px;margin:0 0 10px 0;">

<h4>A PHP Error was encountered</h4>

<p>Severity: Warning</p>
<p>Message:  mkdir(): Permission denied</p>
<p>Filename: qrcode/qrmask.php</p>
<p>Line Number: 154</p>


	<p>Backtrace:</p>
	
		
	
		
	
		
	
		
			<p style="margin-left:10px">
			File: /opt/lampp/htdocs/sirstql/application/libraries/qrcode/qrmask.php<br />
			Line: 154<br />
			Function: mkdir			</p>

		
	
		
			<p style="margin-left:10px">
			File: /opt/lampp/htdocs/sirstql/application/libraries/qrcode/qrmask.php<br />
			Line: 311<br />
			Function: makeMaskNo			</p>

		
	
		
			<p style="margin-left:10px">
			File: /opt/lampp/htdocs/sirstql/application/libraries/qrcode/qrencode.php<br />
			Line: 216<br />
			Function: mask			</p>

		
	
		
			<p style="margin-left:10px">
			File: /opt/lampp/htdocs/sirstql/application/libraries/qrcode/qrencode.php<br />
			Line: 240<br />
			Function: encodeMask			</p>

		
	
		
			<p style="margin-left:10px">
			File: /opt/lampp/htdocs/sirstql/application/libraries/qrcode/qrencode.php<br />
			Line: 279<br />
			Function: encodeInput			</p>

		
	
		
			<p style="margin-left:10px">
			File: /opt/lampp/htdocs/sirstql/application/libraries/qrcode/qrencode.php<br />
			Line: 467<br />
			Function: encodeString			</p>

		
	
		
			<p style="margin-left:10px">
			File: /opt/lampp/htdocs/sirstql/application/libraries/qrcode/qrencode.php<br />
			Line: 485<br />
			Function: encode			</p>

		
	
		
			<p style="margin-left:10px">
			File: /opt/lampp/htdocs/sirstql/application/libraries/qrcode/qrencode.php<br />
			Line: 286<br />
			Function: encodePNG			</p>

		
	
		
			<p style="margin-left:10px">
			File: /opt/lampp/htdocs/sirstql/application/libraries/Ciqrcode.php<br />
			Line: 92<br />
			Function: png			</p>

		
	
		
			<p style="margin-left:10px">
			File: /opt/lampp/htdocs/sirstql/application/controllers/Cdashboard.php<br />
			Line: 82<br />
			Function: generate			</p>

		
	
		
	
		
	
		
			<p style="margin-left:10px">
			File: /opt/lampp/htdocs/sirstql/index.php<br />
			Line: 318<br />
			Function: require_once			</p>

		
	

</div>
<div style="border:1px solid #990000;padding-left:20px;margin:0 0 10px 0;">

<h4>A PHP Error was encountered</h4>

<p>Severity: Warning</p>
<p>Message:  file_put_contents(/opt/lampp/htdocs/sirstql/application/cache/mask_5/mask_21_5.dat): failed to open stream: No such file or directory</p>
<p>Filename: qrcode/qrmask.php</p>
<p>Line Number: 155</p>


	<p>Backtrace:</p>
	
		
	
		
	
		
	
		
			<p style="margin-left:10px">
			File: /opt/lampp/htdocs/sirstql/application/libraries/qrcode/qrmask.php<br />
			Line: 155<br />
			Function: file_put_contents			</p>

		
	
		
			<p style="margin-left:10px">
			File: /opt/lampp/htdocs/sirstql/application/libraries/qrcode/qrmask.php<br />
			Line: 311<br />
			Function: makeMaskNo			</p>

		
	
		
			<p style="margin-left:10px">
			File: /opt/lampp/htdocs/sirstql/application/libraries/qrcode/qrencode.php<br />
			Line: 216<br />
			Function: mask			</p>

		
	
		
			<p style="margin-left:10px">
			File: /opt/lampp/htdocs/sirstql/application/libraries/qrcode/qrencode.php<br />
			Line: 240<br />
			Function: encodeMask			</p>

		
	
		
			<p style="margin-left:10px">
			File: /opt/lampp/htdocs/sirstql/application/libraries/qrcode/qrencode.php<br />
			Line: 279<br />
			Function: encodeInput			</p>

		
	
		
			<p style="margin-left:10px">
			File: /opt/lampp/htdocs/sirstql/application/libraries/qrcode/qrencode.php<br />
			Line: 467<br />
			Function: encodeString			</p>

		
	
		
			<p style="margin-left:10px">
			File: /opt/lampp/htdocs/sirstql/application/libraries/qrcode/qrencode.php<br />
			Line: 485<br />
			Function: encode			</p>

		
	
		
			<p style="margin-left:10px">
			File: /opt/lampp/htdocs/sirstql/application/libraries/qrcode/qrencode.php<br />
			Line: 286<br />
			Function: encodePNG			</p>

		
	
		
			<p style="margin-left:10px">
			File: /opt/lampp/htdocs/sirstql/application/libraries/Ciqrcode.php<br />
			Line: 92<br />
			Function: png			</p>

		
	
		
			<p style="margin-left:10px">
			File: /opt/lampp/htdocs/sirstql/application/controllers/Cdashboard.php<br />
			Line: 82<br />
			Function: generate			</p>

		
	
		
	
		
	
		
			<p style="margin-left:10px">
			File: /opt/lampp/htdocs/sirstql/index.php<br />
			Line: 318<br />
			Function: require_once			</p>

		
	

</div>
<div style="border:1px solid #990000;padding-left:20px;margin:0 0 10px 0;">

<h4>A PHP Error was encountered</h4>

<p>Severity: Warning</p>
<p>Message:  mkdir(): Permission denied</p>
<p>Filename: qrcode/qrmask.php</p>
<p>Line Number: 154</p>


	<p>Backtrace:</p>
	
		
	
		
	
		
	
		
			<p style="margin-left:10px">
			File: /opt/lampp/htdocs/sirstql/application/libraries/qrcode/qrmask.php<br />
			Line: 154<br />
			Function: mkdir			</p>

		
	
		
			<p style="margin-left:10px">
			File: /opt/lampp/htdocs/sirstql/application/libraries/qrcode/qrmask.php<br />
			Line: 311<br />
			Function: makeMaskNo			</p>

		
	
		
			<p style="margin-left:10px">
			File: /opt/lampp/htdocs/sirstql/application/libraries/qrcode/qrencode.php<br />
			Line: 216<br />
			Function: mask			</p>

		
	
		
			<p style="margin-left:10px">
			File: /opt/lampp/htdocs/sirstql/application/libraries/qrcode/qrencode.php<br />
			Line: 240<br />
			Function: encodeMask			</p>

		
	
		
			<p style="margin-left:10px">
			File: /opt/lampp/htdocs/sirstql/application/libraries/qrcode/qrencode.php<br />
			Line: 279<br />
			Function: encodeInput			</p>

		
	
		
			<p style="margin-left:10px">
			File: /opt/lampp/htdocs/sirstql/application/libraries/qrcode/qrencode.php<br />
			Line: 467<br />
			Function: encodeString			</p>

		
	
		
			<p style="margin-left:10px">
			File: /opt/lampp/htdocs/sirstql/application/libraries/qrcode/qrencode.php<br />
			Line: 485<br />
			Function: encode			</p>

		
	
		
			<p style="margin-left:10px">
			File: /opt/lampp/htdocs/sirstql/application/libraries/qrcode/qrencode.php<br />
			Line: 286<br />
			Function: encodePNG			</p>

		
	
		
			<p style="margin-left:10px">
			File: /opt/lampp/htdocs/sirstql/application/libraries/Ciqrcode.php<br />
			Line: 92<br />
			Function: png			</p>

		
	
		
			<p style="margin-left:10px">
			File: /opt/lampp/htdocs/sirstql/application/controllers/Cdashboard.php<br />
			Line: 82<br />
			Function: generate			</p>

		
	
		
	
		
	
		
			<p style="margin-left:10px">
			File: /opt/lampp/htdocs/sirstql/index.php<br />
			Line: 318<br />
			Function: require_once			</p>

		
	

</div>
<div style="border:1px solid #990000;padding-left:20px;margin:0 0 10px 0;">

<h4>A PHP Error was encountered</h4>

<p>Severity: Warning</p>
<p>Message:  file_put_contents(/opt/lampp/htdocs/sirstql/application/cache/mask_6/mask_21_6.dat): failed to open stream: No such file or directory</p>
<p>Filename: qrcode/qrmask.php</p>
<p>Line Number: 155</p>


	<p>Backtrace:</p>
	
		
	
		
	
		
	
		
			<p style="margin-left:10px">
			File: /opt/lampp/htdocs/sirstql/application/libraries/qrcode/qrmask.php<br />
			Line: 155<br />
			Function: file_put_contents			</p>

		
	
		
			<p style="margin-left:10px">
			File: /opt/lampp/htdocs/sirstql/application/libraries/qrcode/qrmask.php<br />
			Line: 311<br />
			Function: makeMaskNo			</p>

		
	
		
			<p style="margin-left:10px">
			File: /opt/lampp/htdocs/sirstql/application/libraries/qrcode/qrencode.php<br />
			Line: 216<br />
			Function: mask			</p>

		
	
		
			<p style="margin-left:10px">
			File: /opt/lampp/htdocs/sirstql/application/libraries/qrcode/qrencode.php<br />
			Line: 240<br />
			Function: encodeMask			</p>

		
	
		
			<p style="margin-left:10px">
			File: /opt/lampp/htdocs/sirstql/application/libraries/qrcode/qrencode.php<br />
			Line: 279<br />
			Function: encodeInput			</p>

		
	
		
			<p style="margin-left:10px">
			File: /opt/lampp/htdocs/sirstql/application/libraries/qrcode/qrencode.php<br />
			Line: 467<br />
			Function: encodeString			</p>

		
	
		
			<p style="margin-left:10px">
			File: /opt/lampp/htdocs/sirstql/application/libraries/qrcode/qrencode.php<br />
			Line: 485<br />
			Function: encode			</p>

		
	
		
			<p style="margin-left:10px">
			File: /opt/lampp/htdocs/sirstql/application/libraries/qrcode/qrencode.php<br />
			Line: 286<br />
			Function: encodePNG			</p>

		
	
		
			<p style="margin-left:10px">
			File: /opt/lampp/htdocs/sirstql/application/libraries/Ciqrcode.php<br />
			Line: 92<br />
			Function: png			</p>

		
	
		
			<p style="margin-left:10px">
			File: /opt/lampp/htdocs/sirstql/application/controllers/Cdashboard.php<br />
			Line: 82<br />
			Function: generate			</p>

		
	
		
	
		
	
		
			<p style="margin-left:10px">
			File: /opt/lampp/htdocs/sirstql/index.php<br />
			Line: 318<br />
			Function: require_once			</p>

		
	

</div>
<div style="border:1px solid #990000;padding-left:20px;margin:0 0 10px 0;">

<h4>A PHP Error was encountered</h4>

<p>Severity: Warning</p>
<p>Message:  mkdir(): Permission denied</p>
<p>Filename: qrcode/qrmask.php</p>
<p>Line Number: 154</p>


	<p>Backtrace:</p>
	
		
	
		
	
		
	
		
			<p style="margin-left:10px">
			File: /opt/lampp/htdocs/sirstql/application/libraries/qrcode/qrmask.php<br />
			Line: 154<br />
			Function: mkdir			</p>

		
	
		
			<p style="margin-left:10px">
			File: /opt/lampp/htdocs/sirstql/application/libraries/qrcode/qrmask.php<br />
			Line: 311<br />
			Function: makeMaskNo			</p>

		
	
		
			<p style="margin-left:10px">
			File: /opt/lampp/htdocs/sirstql/application/libraries/qrcode/qrencode.php<br />
			Line: 216<br />
			Function: mask			</p>

		
	
		
			<p style="margin-left:10px">
			File: /opt/lampp/htdocs/sirstql/application/libraries/qrcode/qrencode.php<br />
			Line: 240<br />
			Function: encodeMask			</p>

		
	
		
			<p style="margin-left:10px">
			File: /opt/lampp/htdocs/sirstql/application/libraries/qrcode/qrencode.php<br />
			Line: 279<br />
			Function: encodeInput			</p>

		
	
		
			<p style="margin-left:10px">
			File: /opt/lampp/htdocs/sirstql/application/libraries/qrcode/qrencode.php<br />
			Line: 467<br />
			Function: encodeString			</p>

		
	
		
			<p style="margin-left:10px">
			File: /opt/lampp/htdocs/sirstql/application/libraries/qrcode/qrencode.php<br />
			Line: 485<br />
			Function: encode			</p>

		
	
		
			<p style="margin-left:10px">
			File: /opt/lampp/htdocs/sirstql/application/libraries/qrcode/qrencode.php<br />
			Line: 286<br />
			Function: encodePNG			</p>

		
	
		
			<p style="margin-left:10px">
			File: /opt/lampp/htdocs/sirstql/application/libraries/Ciqrcode.php<br />
			Line: 92<br />
			Function: png			</p>

		
	
		
			<p style="margin-left:10px">
			File: /opt/lampp/htdocs/sirstql/application/controllers/Cdashboard.php<br />
			Line: 82<br />
			Function: generate			</p>

		
	
		
	
		
	
		
			<p style="margin-left:10px">
			File: /opt/lampp/htdocs/sirstql/index.php<br />
			Line: 318<br />
			Function: require_once			</p>

		
	

</div>
<div style="border:1px solid #990000;padding-left:20px;margin:0 0 10px 0;">

<h4>A PHP Error was encountered</h4>

<p>Severity: Warning</p>
<p>Message:  file_put_contents(/opt/lampp/htdocs/sirstql/application/cache/mask_7/mask_21_7.dat): failed to open stream: No such file or directory</p>
<p>Filename: qrcode/qrmask.php</p>
<p>Line Number: 155</p>


	<p>Backtrace:</p>
	
		
	
		
	
		
	
		
			<p style="margin-left:10px">
			File: /opt/lampp/htdocs/sirstql/application/libraries/qrcode/qrmask.php<br />
			Line: 155<br />
			Function: file_put_contents			</p>

		
	
		
			<p style="margin-left:10px">
			File: /opt/lampp/htdocs/sirstql/application/libraries/qrcode/qrmask.php<br />
			Line: 311<br />
			Function: makeMaskNo			</p>

		
	
		
			<p style="margin-left:10px">
			File: /opt/lampp/htdocs/sirstql/application/libraries/qrcode/qrencode.php<br />
			Line: 216<br />
			Function: mask			</p>

		
	
		
			<p style="margin-left:10px">
			File: /opt/lampp/htdocs/sirstql/application/libraries/qrcode/qrencode.php<br />
			Line: 240<br />
			Function: encodeMask			</p>

		
	
		
			<p style="margin-left:10px">
			File: /opt/lampp/htdocs/sirstql/application/libraries/qrcode/qrencode.php<br />
			Line: 279<br />
			Function: encodeInput			</p>

		
	
		
			<p style="margin-left:10px">
			File: /opt/lampp/htdocs/sirstql/application/libraries/qrcode/qrencode.php<br />
			Line: 467<br />
			Function: encodeString			</p>

		
	
		
			<p style="margin-left:10px">
			File: /opt/lampp/htdocs/sirstql/application/libraries/qrcode/qrencode.php<br />
			Line: 485<br />
			Function: encode			</p>

		
	
		
			<p style="margin-left:10px">
			File: /opt/lampp/htdocs/sirstql/application/libraries/qrcode/qrencode.php<br />
			Line: 286<br />
			Function: encodePNG			</p>

		
	
		
			<p style="margin-left:10px">
			File: /opt/lampp/htdocs/sirstql/application/libraries/Ciqrcode.php<br />
			Line: 92<br />
			Function: png			</p>

		
	
		
			<p style="margin-left:10px">
			File: /opt/lampp/htdocs/sirstql/application/controllers/Cdashboard.php<br />
			Line: 82<br />
			Function: generate			</p>

		
	
		
	
		
	
		
			<p style="margin-left:10px">
			File: /opt/lampp/htdocs/sirstql/index.php<br />
			Line: 318<br />
			Function: require_once			</p>

		
	

</div>