<?xml version="1.0" encoding="UTF-8" standalone="no"?>
<!-- Created with Inkscape (http://www.inkscape.org/) -->

<svg
   xmlns:dc="http://purl.org/dc/elements/1.1/"
   xmlns:cc="http://creativecommons.org/ns#"
   xmlns:rdf="http://www.w3.org/1999/02/22-rdf-syntax-ns#"
   xmlns:svg="http://www.w3.org/2000/svg"
   xmlns="http://www.w3.org/2000/svg"
   xmlns:xlink="http://www.w3.org/1999/xlink"
   xmlns:sodipodi="http://sodipodi.sourceforge.net/DTD/sodipodi-0.dtd"
   xmlns:inkscape="http://www.inkscape.org/namespaces/inkscape"
   width="210mm"
   height="32.931mm"
   viewBox="0 0 744.09449 116.68464"
   id="svg2"
   version="1.1"
   inkscape:version="0.91 r13725"
   sodipodi:docname="headerlembarrm.svg">
  <defs
     id="defs4" />
  <sodipodi:namedview
     id="base"
     pagecolor="#ffffff"
     bordercolor="#666666"
     borderopacity="1.0"
     inkscape:pageopacity="0.0"
     inkscape:pageshadow="2"
     inkscape:zoom="1.0064347"
     inkscape:cx="372.04724"
     inkscape:cy="58.34233"
     inkscape:document-units="px"
     inkscape:current-layer="layer1"
     showgrid="false"
     inkscape:window-width="1366"
     inkscape:window-height="705"
     inkscape:window-x="0"
     inkscape:window-y="30"
     inkscape:window-maximized="1" />
  <metadata
     id="metadata7">
    <rdf:RDF>
      <cc:Work
         rdf:about="">
        <dc:format>image/svg+xml</dc:format>
        <dc:type
           rdf:resource="http://purl.org/dc/dcmitype/StillImage" />
        <dc:title />
      </cc:Work>
    </rdf:RDF>
  </metadata>
  <g
     inkscape:label="Layer 1"
     inkscape:groupmode="layer"
     id="layer1"
     transform="translate(0,-935.67756)">
    <rect
       style="fill:#ffffff;fill-opacity:1;stroke:none;stroke-width:2.4000001;stroke-miterlimit:4;stroke-dasharray:none;stroke-dashoffset:0;stroke-opacity:1"
       id="rect4136"
       width="719.37103"
       height="99.645454"
       x="12.361728"
       y="944.19714" />
    <text
       xml:space="preserve"
       style="font-style:normal;font-weight:normal;font-size:42.8160553px;line-height:125%;font-family:sans-serif;letter-spacing:0px;word-spacing:0px;fill:#1a1a1a;fill-opacity:1;stroke:none;stroke-width:1px;stroke-linecap:butt;stroke-linejoin:miter;stroke-opacity:1"
       x="177.05762"
       y="1020.8862"
       id="text4138"
       sodipodi:linespacing="125%"
       transform="scale(1.0433017,0.95849551)"><tspan
         sodipodi:role="line"
         id="tspan4140"
         x="177.05762"
         y="1020.8862"
         style="font-style:normal;font-variant:normal;font-weight:normal;font-stretch:normal;font-family:Arial;-inkscape-font-specification:Arial;fill:#1a1a1a">RSU Queen <tspan
   style="font-style:normal;font-variant:normal;font-weight:bold;font-stretch:normal;font-family:Arial;-inkscape-font-specification:'Arial Bold'"
   id="tspan4148">Latifa</tspan></tspan></text>
    <text
       sodipodi:linespacing="125%"
       id="text4146"
       y="1048.6409"
       x="179.81705"
       style="font-style:normal;font-weight:normal;font-size:12.47362423px;line-height:125%;font-family:sans-serif;letter-spacing:0px;word-spacing:0px;fill:#1a1a1a;fill-opacity:1;stroke:none;stroke-width:1px;stroke-linecap:butt;stroke-linejoin:miter;stroke-opacity:1"
       xml:space="preserve"
       transform="scale(1.0433017,0.95849551)"><tspan
         style="font-style:normal;font-variant:normal;font-weight:normal;font-stretch:normal;font-family:Arial;-inkscape-font-specification:Arial;text-align:start;text-anchor:start;fill:#1a1a1a"
         y="1048.6409"
         x="179.81705"
         sodipodi:role="line"
         id="tspan4150">JL. RING ROAD BARAT 118 NOGOTIRTO, GAMPING</tspan><tspan
         style="font-style:normal;font-variant:normal;font-weight:normal;font-stretch:normal;font-family:Arial;-inkscape-font-specification:Arial;text-align:start;text-anchor:start;fill:#1a1a1a"
         y="1064.2329"
         x="179.81705"
         sodipodi:role="line"
         id="tspan4179">TELP. (0274) 581402. FAX (0274) 626309 EMAIL rsuqueenlatifa@gmail.com</tspan><tspan
         style="font-style:normal;font-variant:normal;font-weight:normal;font-stretch:normal;font-family:Arial;-inkscape-font-specification:Arial;text-align:start;text-anchor:start;fill:#1a1a1a"
         y="1079.825"
         x="179.81705"
         sodipodi:role="line"
         id="tspan4181">EMERGENCY CALL (0274) 620555, WEBSITE rsu.queenlatifa.co.id</tspan></text>
    <text
       transform="scale(0.99562582,1.0043934)"
       xml:space="preserve"
       style="font-style:normal;font-weight:normal;font-size:17.04176331px;line-height:125%;font-family:sans-serif;letter-spacing:0px;word-spacing:0px;fill:#1a1a1a;fill-opacity:1;stroke:none;stroke-width:1px;stroke-linecap:butt;stroke-linejoin:miter;stroke-opacity:1"
       x="41.979706"
       y="1031.6176"
       id="text4241"
       sodipodi:linespacing="125%"><tspan
         sodipodi:role="line"
         id="tspan4243"
         x="41.979706"
         y="1031.6176"
         style="font-style:normal;font-variant:normal;font-weight:bold;font-stretch:normal;font-family:'Times New Roman';-inkscape-font-specification:'Times New Roman, ';fill:#1a1a1a"><tspan
   style="font-weight:normal;fill:#1a1a1a"
   id="tspan4245">Queen</tspan> Latifa</tspan></text>
    <image
       y="945.11523"
       x="49.126614"
       id="image4153"
       xlink:href="data:image/png;base64,iVBORw0KGgoAAAANSUhEUgAAAOEAAADhCAMAAAAJbSJIAAABXFBMVEX////3CAey38jzmht7yKGV 06/5AAD4AAWv3sb4AAO559f1mRau3sX2lwn6AAD8//+a1bPQ7uOAyqSQ0az0GACi2Lq/5NHdpDrz +vb1mA3o9e7e8eeo27/FvHu54s3wLADtOACw5M+3y6rh9/DK6dntOwDs/PjrQwDc9+7yJADW7uHt kh202LrqUwC207DJnWm7xJrJuXTpSwDifB+zz6XVf0TjXCOavI/onSPFpW/eai7lWADhoTDCr37y Hg3K8+XmURjpiR29uou7xZzKpWrTjEvuMBHWq1PddCfdaRnC277Ptm7oTx3NlF/ldRzQsWLTiFPj ZAfhYCXZdC7Lw4rsfQzI1bXesGPdp0jeazrbfjbYeUK+x5PSiEbGo3PJm2LPlm3LpX/haQDjXy/P 4MnYgFLQjFfWfy7lVCK/vZjSjGHfZS6m0KzPjUTpgBzeYjywqm+7nVqcuIilrXa0rdZzAAAZp0lE QVR4nO2diVcaybrAFaWaUrDZp0UCNCBbWlSiXpdBDEQzEkk0yXOMGp3VjOOdeXf5/895Vb3RS3VV QyvoO34zZyZRlP7xrfXVNjHxLM/yLM/yLM/yLKMTHomA/kEy7ke5T+GFUqESabVmZnxBSaojkZCI MzOtSKVQEsb9eJ6EL1VamU67/XPvYvvXP46ODg6y2Wy1ms0eHCwe/bFxt71+3WyvSC0EOu5HHVz4 VCSZb/YOy9k4BHNzQBUIIceh/2h/nwMwnl08ublqd4uV0hMy3VQxEOy9z8K5OQQ0SReO4wDmXPr9 eqVbLDwRq00lfcHO1o2sQYgVyMKcVDBzd8fteqvwNHTJlwqRYtK31m4un280srJdsjkRZnav1/ZF npBjItJKa6beaR5/OapCF5gcmIPZi6t68YmoUhWcMVrJ7m3v93IcEbApQfXLcr71hDSpCM8XIsl6 88/GJNIlGzL+61W99UQij0mEQktqXxzFmQaL7DV+1848LWvVRKgkT5e/IL9kQsLFm3zkKSoSh6Ba 9+pLlalJCOJf2skn55Gq8JXu1UaV5ZNIkY2tzCNmxOMJQUjpIgjGoQVfOe3txVmKBCDX6xbGCEEU Xkgt1IrJTMYXCAaMEgz4MslicSElKKCl35rbVbZHPi5GYQHVM5jG50P/2gV9Q/5uplhLoTDC1zrr WQBZjIu97qOwVWEhifVEJLORYv36kDojYn5/kVUJAFBuFsecO5DufEFXbBaVop8R6/uLTH+EG+3K GPFqyWAQm9/AhKqIeWSrLMb4+vhMtVYsJlFgQYK0EkQixxWyIzox3h5Wmbmj3GyNC9EsKEmkcDSV ed2CimJzh+mO8JP0KCJOXwQBgwbcma8o9djuWG5Gxg1FECFVcxeGxJXDOCNzgPhx8pEW5CiV+JiZ RAxelxlq5MBG/ZFZqkFStQzLK7EaWZaaa44xb/RFrkllMbW5hSILUdrPMi11eZwxVatJUSD1KUnD h/6SLNYWcOWNXlBjOaTYbLDyBtwfizPyKTluys5mdjilGA0qBSmDDyN2Thh5gwPbmdEi8qhoy7ir SLXXJBLO0VWUzpnOuCGNbvyP6dwW3H0JhmP+cCLo9N39Kgtxrz4ixFQmmFarNKtxMiTtR+IEKV5X WfFmZIgTuERbqKHaVA0w8kjXVa0W9semozE/EVJ8k3s8iCZBSUKJpj4XxVo6HJueRpDhtP2l4hYb URpnecPjmjSJRhp0xkQsqjAmbIziVpblix9HHFFJgkfGVF0GZDVOT6O4Y/0wxDfMcPMpM25AWRRK R8y0PyozIkVaGFG4YSEeF8dNpwqfQvnSCTGoqnE6atVjcJ+RFzm4/ChqVEVSRcekmVARka0mzIif WAVcfOVRjTQWMg6MmqVixrTxG9IJAxEs1kcVbZQ0IadFXdBfanr/V5ZUhowY1BHN7iiulFmueJcc AR3uA2e0oYTP59P/oH4tk6xpnIKDoQbCGqJZjeIWM9r0HtgVcR84GOzTER/fp/S5kT5Tjq/qI0aN 3hg8Z7XEH9oVlaJNLtl8uE/h3FwLqAWd07f7iNNGS5V2WK5Ylh6U0CByF1GzV0cSlcfOakSM9i1V bDJrm5tRN+DcDBcDYX84bf2a34ioW6rItNPqylhq8BQqS2m6TPhR9jN/24g4HdMR60usGnxjFPGU JHyqRukHB8NogGhmDMamDYhhTYnMeAqXxzjDKNSc0jy2VMxorNTSZkT1B6VDRrCBuZEFGzKk4/gi EZMZTV8haNFFsNkfd32KkiYRUW5l+I0p3hBQ+1oUP7GCTbYz9qFiitwLVhEN+c9PQBRXciwlrj+C KRuhSBpABRXEvqmaoo1mqE9CiUiEJMEfNUS/xp8gIIq3Y1YiL7hc40saW+iImhpNrqjmxSBbifmH gitVit385Yt6zd3ra3Y16ohqXAmYlDgdw3FoPOEUL8mXOqtvN6dCodB3My5/SrCrMe03W6rZTqN+ /APMnMgt3mtOxJqTLl+cbSK22dmpqdnQpUsdIrFH1XRMQ0zb4+l0FLui+IY1lwG37mkUJZvlJdKc CodldupyED9P2XwxoREqXpe22Cn+Yr3Bqk4/3kN1KhSK3c7q2eZ8H04h7Az28dktNew3xRtzsJmO BUcxxOALRQw3a4GT5fuZCpZIq4W7NK1Wq8La95O05sY+YtiuRGynYps9TvQUayJrZyES3NTL16// /nv/Zv3T4c7OUgPL0tLOyaebn5orUjJSEBwSsTX96wFVQbQqEWk2sMNQImx0PQAKUogE9/6kfLC7 i9fWyXt/OFUgAHNzcwBm//fP5mmxQtSmdbq7H20wokWJ0yjKijdxhpnG2x7MNFUPyTI/28c7PNrF e3sotsMh7Pgf67ddEmTNosW+nWJftCgxmnBlpl7qGt/lZySrH86mZGW+PizvUuGMlHDxop20j1Fr 1hG+EdGqRBRsmD0pWPY0U1MqFFAsiURm1jan3h/tuqLT3xrEG9f1itUlLYmxn/hx0vBblBj2ifvM aNq+l/J75q+9yUHwVEiYO85bGS2jxrBRi2GrEtMuKrf76GYU8ueW9+HkfXbAxZaf7H7d8gTmvBiI GRD9FkKkxDyzJXXoeS1RSerpa105Jcrs7h4clI+OjrJx5vYtDuSuM6aYY2nyJ4yE/mmbEn9gOeJi 3SNfckteIKmQHRwc7Z0cvnr9+uXsjy15m9r6XZax54cDS+bVzAtmRBNh1KpE8S9GvpiEt57Kmkh7 A0IUNWC2cfL+79cvX2qJI/R5Aq9kwwVr86ZRpRosiB93jd5ojjYJipkiJbaZ42Av1XdJOo8DDsDy T7fF2ouQMfOHOvqrhEpypdeg7RThQKNj8EbeqbIhmGl4rcEc6Q9duPHFrRzii9+1Rfx4wU1jhRM6 Nb20kmlf5ChbfkD8ypCZU85KtJqpXzxhEX4ZNtSU6p8gko/aVqvg90bCeat/l1r5XtnZVjloXGGQ dFRi1KrE9DeGI4JfhxxBRZplgNfK61vJAt9RCbEipeuco61y4K6/flIwVW/GnGh1xGhimdHfB3tD Fd988isKkfF1w0J535mJkNg/qEg3zrso0KPoiKbqLW1UopXQ32SEGlgeZlq/lN+RFWisat0Q4hHX NnRyR9DQEXlT3qeaaYcRarhhCCtNlAPBR/P68YyZ0Ofws0IS/bATYllflmZKigkKYVTaYRAu5gdO iMWbKuTgumXZ8Yw7QlTk1T85WSr4Q1+WZlRi0FC6WR1xOnZIBZzkcoMS8t1P+ECLa2sMnnlrIqQM WviZa6f9Pv3WkSljhCmE0XN6MEWEg6V8/vQEA27Z0qh7QlwKlZ0Q17WkYVSi0UxthD0GYTafGgiw swRQ8rqy1wkzP867JpworDkNXfVfbfREY0q0OSJjMd+AhKWVMga8JrQGBiKcEKSPZEQurrUhjUoM OxNO/5s+RERWOgBhqY3jINgnLXA0E86yOvq8z2EJnr7Od4FspjZH/Ncii9B9pCm1cxhwm1gGFQcj pCAeKxYikJO+jfC/9HVugxCW2lkgDymJGbT4wUg4xZ6VEYJkQ9Ub1UVy0rcS/oee8jn3SxVLKxiQ i7fJwXdgwgle2iAigh3FiVOG6jTsTPiPJTqh65qGz8u1CDx2aEAOToiKP/J+JriljBbJZmoNNQxC 1+v3+a78NM6vNxHObrqaOyyQO7pgSVGiYbBvKGsGJdxw2THNKE4Dm07NuWEIJyLXxClAVYnGusY5 1PyDXpi6HQG3LmRAcOj45EMRTswQJ8i0z51YuA1KeOGKsHItP4hjmMGE74Yh5OtLBFfU3scQTRND Ex676dOUbpXKyCEVyhIZinCi0CQVXeBCLioW+tHUEGoG9ENXvTZJiXk0FQ5LONH6RlKisu7O0B0O DksIb12E0pZafVDD0rCEfL1McEXYlD/Lfm0acCT8D5WQy56yngDZaFMNeIC2HWVYwokCKZ6Cczk+ 9B0x0A81lnTxX2pNA/ZcBJqumpe5LK06GJpwIkPYI8Itivhbho6UI+G/qHUp+MoONJGv6gOAO9rH MTxhiRBsuLhcnKZcEP6bOraATWbdLeh1x5xjtpcJV0NDEk4Ut+1KBPKbGcYXjoTXtPEhsjvm2yf1 tVWQWsJ6ICy17UoE67LB9LeyJxwIoz3aGB98ZG7W08OM5hruCL8fhNDwKfYf7U7+Df1g6kj4ldan cbGgPaM3VMA2NSp5IUQfo41wT86IRbYO31MAuWqelQ37KpwEP1E/Di+EExlb7YaG5uYTJRwJTyiE LqZlDPYDr6jljyfCwrI166uf/gKB0FLS0MpSagaXRTDEgDh93YYnwom6LSDGV/Db9cf5ToT/oiR8 F0YaWQf9V6/RX+qJsHhhNVMlkfUTYtiBcIsy96SGK5rU+z/OZekLbr0RlppWM4VbmFCwE1pGT39R kgWgZnD5fbf678st0rsB3gj5uvW8BHjtijD6iyMfUkqQZaRFQ57iGg9JONH6YjFTl4S0QAOOmVV3 3WABcOlBCQtXbgnNC74pIwsuzuwFl5qGd4U79NQSeeGJUOgQrZTXCAMOhNfOgcbFnu6IMcCBk0EI Xe9E0MVncUT4BvtQX4fkUBr75ryuDVI6EqpkyiZChpV6JGxZevzxpokwQCZccz5/APzBbJTyeePg G+48LGGlN2d8Pi5+SyY0b4FqOw9/2alionRr/HzgjvPU/H0QmpweFxinck2jEQaJhGHnoRNwsTq4 8qfxPbklRsb3SCi0TR7F5cyEaVKgif7zB0c3BFvspbPmFMUxdvF7JTSlJnlxDf6iXnknSIR+58U0 oEE3OVmSv5oIGVuHPRNmTMW3uipDHz2FCYEmGl527GCo7Ui6SEcmwiz9IC3PhElT0NDaiVZC07bn tOPo19V+fEupyFUv6eNDr4RF0/KMuTeyG+mrFMlG6hRJ3e0k4c2OQZlYux/Cmim1qela60Tp84cG wmjCMZK6m3AS8uZeNCAsorlXQmM7Su0+693ENMENY+kTh0hK7107Es7d0DtRXgkXjGsz4JL8C1IU N4yGHdd4u9xkUbLqcIfeTfRKWDk31ojKfiU9WRDcMJY4d6jY3G6sTOXNLT7GeNK7Do0PbJkiJRhp NOwUZ7gssztDJpyE1LOJvPuhwUq15Ks1hBN2I40lnPY8ud4IVLISzl3TQs29Rhp1DliruwN2I435 6w4qBNtuT92z+iEyb9pj32u2UCsSbZY7TVBh2mHVJcy5Pv/SGksZ9u094/c3acGysr5ec8OEXYVh BxVSZ+JZhPpapYchTPbnAbUTLaxjw36Y8TvtPARUVzILn7dWDLSlGN4JJb2K5qoduebSsqHdSGPh DjkXqg7sltBauFPN1Cshv6J/oOBQ+SQ1Iw1bVRjzp9eJudCwFN6NdG3Tx5ByXJ/3Mb5udnF15BMw 16Sxvo0mCHOqGDA32N6K7p5tLoEyCvZKWFjWJyrVjpBW0BBUSN7hDKoDniZoa0OjT9c51njutWnp kNNUmDR3aGJ9QHKYgfH2gHt+C8f2uWfnhpvnfqm2cEirKlMOKoz6g0Qb5eDANyRYekOKEh0HiR4J hY6am7iqmtDU4b1VhVF/mmijHHgz8OECvH3aEp9e/zCElWtt1c65Eu8FBxXGEgHSik0Obg1xekLL Fmpw1ncwBY+EGXXNN1xUM5KqQu1sDP3M3YRIWiXGwathtooWrgmETgvDvREKHcW1uLhak2gqtNho LCySNhxy4Gqo8y/4FdKaunXyh+WNMHKjLn9Uk70WSC0VKQLsEFa/AzjshUEzBJfmIDkmeyLkJUUx oKzaqBpILfUaAswTHglU28OeYGJfBDJp2gd5b4SRnrLKuqrmW3UPacAMGA2L9UP7E4HFzvAb0gnR FFe3pAK86IGQl5QCEX5VdaGGmbDJRpEGpfd2vwF7Xi5DihALXGJf0Qtha1/ZCaBNUaqraMy9CxRF CYAcuAh6ORZCWCFWD6TTpD0QlpR3AUtqmBZIgyYEWLcDArjs8b6HInGDGSDMYRRXhyZUdquARe1z S5IB8/arrUCu7fVwFoGUMNBvPvLZTgcaei1GRK6juaxWECpOaK7WYmmxc2J9FLyf3Pv5Oi3yLkGw YUUcmlBZBK2HUXVCTZ/zVYttwlWBIN4T7+FMa/tIX/311hukhiUUOosQA2qrCJX+mkmD0XAg+MY6 F8qBo5X7OZ+00nNo+VgQzbuCXBPypzvyrkati0sARC4Y2LeWagAe39vdjklC/U1AnBmOsItTOIy/ MQEag0wUueDaD9bGJmi0W/d2hi45Y8i+aIyowxEiQA6FZm1vkgqIxxOJhJzoo2HkgksWFwTV3r1e Xa1uXCMg7hkOuDTt5Xa7Vr+LlYNCvvprlDP3cKIPp8MYMIrT/L4lEgC4nb/nw2VJ+yGU9yr3D7Ea gpA/lTXY0D4nJU3IJ88Hw/jap5g/LbYt1+ZBZKD3f9ex5OCKyL6utQ6saDz5wxUhj+/848ChemYL Lx9Gh2NMOJjGLhjFhejXLDDz5d48xN3qfN7pHAsufi6RTlFysdO50G7ASaifnpTSC5m0D7sgvpks uNUwKfAB7xwvdbJOiHBPjmp82sg3Nf+Z9UFH8EVxINtUDxtWDoRO4MuPZAtFfxDbH+Om9S4ge/Nw d6orm/HJllpdr7cKLfNm9anQ2zotGpR8X+OQA3vqySq8fAAtQgsH8S0X0zEUYTrnpnvkAcjd3EON RnmkjuPRQByo3v306n9MgFN71cWvnaJDUcVHVhr4ILSbjPEIjATmQ2Yawzd1mfk4ABvXD6c/FTHv FG7wA8yB3ddGwJcHHD7KrX8UmJGvkl/HJ9lpVZdym2wwjBxQu9/i9iJr4kO/6beHv4lLkLapByCa CXc5+ZPfu7JGPr5yepyVFaiGKLnSDiTwud0oEyL/k5rbBj70S3Lrt7WR3DTGJ3txRzXCIxPh1JG6 sRY0mkmDrZZa7XPMh4oFZWCnHKufwHfoyLVaIn+90z+BEL0wvtGUCiO75KCyskdWI8cdvTL74asD 9YUAflQbRXypdrqMHx8F/WVRVoqQVK5ACmC+mD8sNc8XoX5WKD5xuJdvjfSiuFL3hnSIFbe7Ydag EREF25tupVTpdq63s/jxQfxYibOG6y3SKIz+s72/VNXzH8Lb63WKo1OfJpW87Ug5Dh68f2kFnJr6 +0ArZ1Eiu9u+a1Rl7WCdysMCw3XVaT/C++tjDqp8EMzBRq+THD0eFr4ln1lqVOBHmwJled0/XBgC 9TRaCHfaLXnLln5gsBhMrDW/7eRU68TH82bvmijFju+GEaFouNSVmzz6m8iHA+rhrnVgXn6Dc6Sw oC12EoNSu3fYyCp4mK766/Ftd7S+R5DSrTqg4biDQ4KB9i31yHQENrfUbk0IqaIPxxdRFOu31+s7 OeR7HDJ1ZJnVP/5sdx0ObB+tqAtROFKEoamRW1xBXAERS719/cNOLg4gVtwciC9u/9z2PQo6LEl5 wMjt7jH4sLwyqpGrrjfbK+3m8rdffinDuTl8JHa1/OvF1W29VSk9hqt9FCne4O7Y5N4rmoH21fjR oEYOZstLJ79gaeT2vvx+s9U57SK4R6I6VQp4fzfMHrpQIEmNKLl86201891usobQ+MejOV2kHORg +eat/e4HRzWagyr4qfWILNIuheYcFz+5vdQbwLOz8/PzhIs8jPL6yHjwPvjJ9eozYaCDK+9Hij/D 3LnU0Qa886HNsx8//Hi2GZqnIb48PDAi3nXdZbzatTh6bc9cnTTFNeXejtnQ/Lu1ZBFfKJNZezdP uLTEoMYNgxpBru2iIch3v+2kRx+EavW8KCmAoc3PM/rAmy9kXmyGKIi4GO8vIYXnXZZ2Sis7END3 Ij2M1ERJPn99dmrVMoQvJVenaIzGiMOBcpt+5VWlmQOg7GmGd0jhg2fY5UJnhMZQqfuBaqp/G676 APF1ijfyyZs4HG6lk2cpvgthD3xB7jwX6t/RGF++75sqBxabTvMrJWkb98PPB19r7F1KawhwfnPN qfPFRy6p7vjaUOMAcNghMlaU0263Pd2DM6zMICcMvc1Q3ENIrs7TUscrQ3IE1WPJdp9OqXuDO0Jg Y2T3wJse/zI0G1plzI2UpDP3pppbDpoyBxpjy+0gsFQXkwsPCkOUwofQ5ho7l1UGMdXcshTRbKJU XFH6JKCRF8U1afShdKH+2eemHuGT7+ZpUfWVIapCkL3Y6v6GpbO8obQs4VJHRJawOvrRvuBzO3tX qp9Rk6PBVHHfN9vYOdkpV9V2DUCAl6gk/DwGT3T/lnzkMzXivDbVqviKKKgxYw2uIlcOebn7bhTC J98yalVrr0qBndzpBLEBjMNIB5VC53t6rXpkv8+Mmzzp1Dfn8RTdAHt8xiZ8cZUacUzuqAGufMbj zfnvPK7KG5WU6HWcPHQ0+uPu4Zkcoua/ty2ee7QSeTFFHx6f9K8W5A7eT8kNg9BT0aAspe5bqjfK IUdp6h+ok1ihs6cEOIFrHGriwLMciBHqLebQ2+TTAsSL0+mJA8ecvY9aCzb01vO1hWMQRqkqQ6r/ D30Yx8DXu/BJegNAl9Dq0wScwDfoMNWIAV/c/63vIxN+hj7iQDI7f/nAC2ceWAp16uB4anZqwDvL H5/wkUtKy3F+s/u45qGGklLmnVNyDJ09hVrbhVSktyTG2fnVJxxjzMJH6h/mLbY6G/ru9Km7oFH4 gvRuSr+YfXY2FPrukt7lf4JSKnY+bCLTRPa6+fazFHlqhagrKUUydSTBmTEs7xqZ8Lwg/P+le5Zn eZZneZZneYzyf0KTf9RT25dsAAAAAElFTkSuQmCC "
       preserveAspectRatio="none"
       height="78.633766"
       width="78.633766" />
    <rect
       style="opacity:1;fill:#000000;fill-opacity:1;fill-rule:nonzero;stroke:none;stroke-width:3.70000005;stroke-linecap:round;stroke-linejoin:round;stroke-miterlimit:4;stroke-dasharray:none;stroke-dashoffset:0;stroke-opacity:1"
       id="rect4144"
       width="378.39413"
       height="1.706407"
       x="187.43886"
       y="-989.65204"
       transform="scale(1,-1)" />
  </g>
</svg>
